simulation/qsim/moduloRede.msim.vcd
$comment
	File created using the following command:
		vcd file moduloRede.msim.vcd -direction
$end
$date
	Mon Sep 21 19:31:32 2020
$end
$version
	ModelSim Version 10.5b
$end
$timescale
	1ps
$end

$scope module UART_teste_TX_vlg_vec_tst $end
$var reg 1 ! Clk $end
$var reg 8 " Data_send [7:0] $end
$var reg 6 # Opcode [5:0] $end
$var wire 1 $ Tx $end
$var wire 1 % TxDone $end
$var wire 1 & tick $end

$scope module i1 $end
$var wire 1 ' gnd $end
$var wire 1 ( vcc $end
$var wire 1 ) unknown $end
$var tri1 1 * devclrn $end
$var tri1 1 + devpor $end
$var tri1 1 , devoe $end
$var wire 1 - Data_send[0]~input_o $end
$var wire 1 . Tx~output_o $end
$var wire 1 / tick~output_o $end
$var wire 1 0 TxDone~output_o $end
$var wire 1 1 Clk~input_o $end
$var wire 1 2 BDG|Counter[0]~32_combout $end
$var wire 1 3 BDG|Counter[0]~feeder_combout $end
$var wire 1 4 BDG|Counter[0]~33 $end
$var wire 1 5 BDG|Counter[1]~34_combout $end
$var wire 1 6 BDG|Counter[1]~feeder_combout $end
$var wire 1 7 ~GND~combout $end
$var wire 1 8 BDG|Counter[1]~35 $end
$var wire 1 9 BDG|Counter[2]~36_combout $end
$var wire 1 : BDG|Counter[2]~37 $end
$var wire 1 ; BDG|Counter[3]~38_combout $end
$var wire 1 < BDG|Counter[3]~39 $end
$var wire 1 = BDG|Counter[4]~40_combout $end
$var wire 1 > BDG|Counter[4]~41 $end
$var wire 1 ? BDG|Counter[5]~42_combout $end
$var wire 1 @ BDG|Counter[5]~43 $end
$var wire 1 A BDG|Counter[6]~44_combout $end
$var wire 1 B BDG|Counter[6]~45 $end
$var wire 1 C BDG|Counter[7]~46_combout $end
$var wire 1 D BDG|Counter[7]~47 $end
$var wire 1 E BDG|Counter[8]~48_combout $end
$var wire 1 F BDG|Counter[8]~49 $end
$var wire 1 G BDG|Counter[9]~50_combout $end
$var wire 1 H BDG|Counter[9]~51 $end
$var wire 1 I BDG|Counter[10]~52_combout $end
$var wire 1 J BDG|Counter[10]~53 $end
$var wire 1 K BDG|Counter[11]~54_combout $end
$var wire 1 L BDG|Counter[11]~55 $end
$var wire 1 M BDG|Counter[12]~56_combout $end
$var wire 1 N BDG|Counter[12]~57 $end
$var wire 1 O BDG|Counter[13]~58_combout $end
$var wire 1 P BDG|Counter[13]~59 $end
$var wire 1 Q BDG|Counter[14]~60_combout $end
$var wire 1 R BDG|Counter[14]~61 $end
$var wire 1 S BDG|Counter[15]~62_combout $end
$var wire 1 T BDG|Equal0~3_combout $end
$var wire 1 U BDG|Equal0~0_combout $end
$var wire 1 V BDG|Equal0~2_combout $end
$var wire 1 W BDG|Equal0~1_combout $end
$var wire 1 X BDG|Equal0~4_combout $end
$var wire 1 Y BDG|Counter[15]~63 $end
$var wire 1 Z BDG|Counter[16]~64_combout $end
$var wire 1 [ BDG|Counter[16]~65 $end
$var wire 1 \ BDG|Counter[17]~66_combout $end
$var wire 1 ] BDG|Counter[17]~67 $end
$var wire 1 ^ BDG|Counter[18]~68_combout $end
$var wire 1 _ BDG|Counter[18]~69 $end
$var wire 1 ` BDG|Counter[19]~70_combout $end
$var wire 1 a BDG|Counter[19]~71 $end
$var wire 1 b BDG|Counter[20]~72_combout $end
$var wire 1 c BDG|Counter[20]~73 $end
$var wire 1 d BDG|Counter[21]~74_combout $end
$var wire 1 e BDG|Counter[21]~75 $end
$var wire 1 f BDG|Counter[22]~76_combout $end
$var wire 1 g BDG|Counter[22]~77 $end
$var wire 1 h BDG|Counter[23]~78_combout $end
$var wire 1 i BDG|Counter[23]~79 $end
$var wire 1 j BDG|Counter[24]~80_combout $end
$var wire 1 k BDG|Counter[24]~81 $end
$var wire 1 l BDG|Counter[25]~82_combout $end
$var wire 1 m BDG|Counter[25]~83 $end
$var wire 1 n BDG|Counter[26]~84_combout $end
$var wire 1 o BDG|Counter[26]~85 $end
$var wire 1 p BDG|Counter[27]~86_combout $end
$var wire 1 q BDG|Counter[27]~87 $end
$var wire 1 r BDG|Counter[28]~88_combout $end
$var wire 1 s BDG|Counter[28]~89 $end
$var wire 1 t BDG|Counter[29]~90_combout $end
$var wire 1 u BDG|Counter[29]~91 $end
$var wire 1 v BDG|Counter[30]~92_combout $end
$var wire 1 w BDG|Counter[30]~93 $end
$var wire 1 x BDG|Counter[31]~94_combout $end
$var wire 1 y BDG|Equal0~8_combout $end
$var wire 1 z BDG|Equal0~7_combout $end
$var wire 1 { BDG|Equal0~9_combout $end
$var wire 1 | BDG|Equal0~5_combout $end
$var wire 1 } BDG|Equal0~6_combout $end
$var wire 1 ~ BDG|Equal0~combout $end
$var wire 1 !! BDG|Equal0~clkctrl_outclk $end
$var wire 1 "! Opcode[1]~input_o $end
$var wire 1 #! Opcode[2]~input_o $end
$var wire 1 $! Opcode[0]~input_o $end
$var wire 1 %! Opcode[3]~input_o $end
$var wire 1 &! Transmitter|Equal0~0_combout $end
$var wire 1 '! Opcode[4]~input_o $end
$var wire 1 (! Opcode[5]~input_o $end
$var wire 1 )! Transmitter|Equal0~1_combout $end
$var wire 1 *! Transmitter|bitAtual~1_combout $end
$var wire 1 +! Transmitter|Add1~7 $end
$var wire 1 ,! Transmitter|Add1~8_combout $end
$var wire 1 -! Transmitter|bitAtual~2_combout $end
$var wire 1 .! Transmitter|always0~5_combout $end
$var wire 1 /! Transmitter|LessThan0~0_combout $end
$var wire 1 0! Transmitter|Add1~0_combout $end
$var wire 1 1! Transmitter|bitAtual~5_combout $end
$var wire 1 2! Transmitter|bitAtual~0_combout $end
$var wire 1 3! Transmitter|Txdata~10_combout $end
$var wire 1 4! Transmitter|contadorTicks~8_combout $end
$var wire 1 5! Transmitter|contadorTicks~4_combout $end
$var wire 1 6! Transmitter|contadorTicks~6_combout $end
$var wire 1 7! Transmitter|Add0~1_combout $end
$var wire 1 8! Transmitter|contadorTicks~7_combout $end
$var wire 1 9! Transmitter|Add0~0_combout $end
$var wire 1 :! Transmitter|contadorTicks~5_combout $end
$var wire 1 ;! Transmitter|always0~9_combout $end
$var wire 1 <! Transmitter|always0~4_combout $end
$var wire 1 =! Transmitter|always0~6_combout $end
$var wire 1 >! Transmitter|Add1~1 $end
$var wire 1 ?! Transmitter|Add1~2_combout $end
$var wire 1 @! Transmitter|bitAtual~3_combout $end
$var wire 1 A! Transmitter|Add1~3 $end
$var wire 1 B! Transmitter|Add1~4_combout $end
$var wire 1 C! Transmitter|bitAtual~4_combout $end
$var wire 1 D! Transmitter|Add1~5 $end
$var wire 1 E! Transmitter|Add1~6_combout $end
$var wire 1 F! Transmitter|always0~7_combout $end
$var wire 1 G! Transmitter|always0~8_combout $end
$var wire 1 H! Transmitter|stopBit~0_combout $end
$var wire 1 I! Transmitter|stopBit~q $end
$var wire 1 J! Transmitter|startBit~0_combout $end
$var wire 1 K! Transmitter|startBit~1_combout $end
$var wire 1 L! Transmitter|startBit~q $end
$var wire 1 M! Transmitter|Tx~3_combout $end
$var wire 1 N! Data_send[6]~input_o $end
$var wire 1 O! Data_send[7]~input_o $end
$var wire 1 P! Transmitter|Txdata~15_combout $end
$var wire 1 Q! Transmitter|always0~2_combout $end
$var wire 1 R! Transmitter|always0~3_combout $end
$var wire 1 S! Transmitter|Txdata[6]~4_combout $end
$var wire 1 T! Transmitter|Txdata[6]~feeder_combout $end
$var wire 1 U! Transmitter|Txdata~16_combout $end
$var wire 1 V! Transmitter|Txdata~14_combout $end
$var wire 1 W! Transmitter|Txdata[4]~2_combout $end
$var wire 1 X! Data_send[5]~input_o $end
$var wire 1 Y! Transmitter|Txdata[5]~5_combout $end
$var wire 1 Z! Transmitter|Txdata~13_combout $end
$var wire 1 [! Data_send[4]~input_o $end
$var wire 1 \! Transmitter|Txdata~12_combout $end
$var wire 1 ]! Transmitter|Txdata[2]~0_combout $end
$var wire 1 ^! Data_send[3]~input_o $end
$var wire 1 _! Transmitter|Txdata[3]~3_combout $end
$var wire 1 `! Transmitter|Txdata~11_combout $end
$var wire 1 a! Data_send[2]~input_o $end
$var wire 1 b! Transmitter|Txdata~9_combout $end
$var wire 1 c! Transmitter|Tx~2_combout $end
$var wire 1 d! Transmitter|Txdata[1]~1_combout $end
$var wire 1 e! Data_send[1]~input_o $end
$var wire 1 f! Transmitter|Txdata~8_combout $end
$var wire 1 g! Transmitter|Tx~5_combout $end
$var wire 1 h! Transmitter|Tx~4_combout $end
$var wire 1 i! Transmitter|Tx~q $end
$var wire 1 j! Transmitter|TxDone~0_combout $end
$var wire 1 k! Transmitter|TxDone~1_combout $end
$var wire 1 l! Transmitter|TxDone~q $end
$var wire 1 m! Transmitter|Txdata [7] $end
$var wire 1 n! Transmitter|Txdata [6] $end
$var wire 1 o! Transmitter|Txdata [5] $end
$var wire 1 p! Transmitter|Txdata [4] $end
$var wire 1 q! Transmitter|Txdata [3] $end
$var wire 1 r! Transmitter|Txdata [2] $end
$var wire 1 s! Transmitter|Txdata [1] $end
$var wire 1 t! Transmitter|Txdata [0] $end
$var wire 1 u! BDG|Counter [31] $end
$var wire 1 v! BDG|Counter [30] $end
$var wire 1 w! BDG|Counter [29] $end
$var wire 1 x! BDG|Counter [28] $end
$var wire 1 y! BDG|Counter [27] $end
$var wire 1 z! BDG|Counter [26] $end
$var wire 1 {! BDG|Counter [25] $end
$var wire 1 |! BDG|Counter [24] $end
$var wire 1 }! BDG|Counter [23] $end
$var wire 1 ~! BDG|Counter [22] $end
$var wire 1 !" BDG|Counter [21] $end
$var wire 1 "" BDG|Counter [20] $end
$var wire 1 #" BDG|Counter [19] $end
$var wire 1 $" BDG|Counter [18] $end
$var wire 1 %" BDG|Counter [17] $end
$var wire 1 &" BDG|Counter [16] $end
$var wire 1 '" BDG|Counter [15] $end
$var wire 1 (" BDG|Counter [14] $end
$var wire 1 )" BDG|Counter [13] $end
$var wire 1 *" BDG|Counter [12] $end
$var wire 1 +" BDG|Counter [11] $end
$var wire 1 ," BDG|Counter [10] $end
$var wire 1 -" BDG|Counter [9] $end
$var wire 1 ." BDG|Counter [8] $end
$var wire 1 /" BDG|Counter [7] $end
$var wire 1 0" BDG|Counter [6] $end
$var wire 1 1" BDG|Counter [5] $end
$var wire 1 2" BDG|Counter [4] $end
$var wire 1 3" BDG|Counter [3] $end
$var wire 1 4" BDG|Counter [2] $end
$var wire 1 5" BDG|Counter [1] $end
$var wire 1 6" BDG|Counter [0] $end
$var wire 1 7" Transmitter|contadorTicks [3] $end
$var wire 1 8" Transmitter|contadorTicks [2] $end
$var wire 1 9" Transmitter|contadorTicks [1] $end
$var wire 1 :" Transmitter|contadorTicks [0] $end
$var wire 1 ;" Transmitter|bitAtual [4] $end
$var wire 1 <" Transmitter|bitAtual [3] $end
$var wire 1 =" Transmitter|bitAtual [2] $end
$var wire 1 >" Transmitter|bitAtual [1] $end
$var wire 1 ?" Transmitter|bitAtual [0] $end
$upscope $end
$upscope $end
$enddefinitions $end
#0
$dumpvars
0!
b10101010 "
b11110 #
0$
0%
0&
0'
1(
x)
1*
1+
1,
0-
0.
0/
00
01
12
13
04
05
06
07
18
09
0:
0;
1<
0=
0>
0?
1@
0A
0B
0C
1D
0E
0F
0G
1H
0I
0J
0K
1L
0M
0N
0O
1P
0Q
0R
0S
1T
0U
1V
0W
0X
1Y
0Z
0[
0\
1]
0^
0_
0`
1a
0b
0c
0d
1e
0f
0g
0h
1i
0j
0k
0l
1m
0n
0o
0p
1q
0r
0s
0t
1u
0v
0w
0x
1y
1z
1{
1|
1}
0~
0!!
1"!
1#!
0$!
1%!
0&!
1'!
0(!
0)!
0*!
1+!
0,!
0-!
0.!
1/!
00!
01!
02!
13!
04!
05!
06!
17!
08!
09!
0:!
0;!
0<!
0=!
0>!
0?!
0@!
1A!
0B!
0C!
0D!
0E!
0F!
0G!
0H!
0I!
1J!
0K!
0L!
0M!
0N!
1O!
1P!
0Q!
0R!
1S!
1T!
0U!
0V!
0W!
1X!
1Y!
1Z!
0[!
0\!
0]!
1^!
1_!
1`!
0a!
0b!
0c!
1d!
1e!
1f!
0g!
1h!
0i!
0j!
1k!
0l!
zt!
0s!
0r!
0q!
0p!
0o!
0n!
0m!
06"
05"
04"
03"
02"
01"
00"
0/"
0."
0-"
0,"
0+"
0*"
0)"
0("
0'"
0&"
0%"
0$"
0#"
0""
0!"
0~!
0}!
0|!
0{!
0z!
0y!
0x!
0w!
0v!
0u!
0:"
09"
08"
07"
0?"
0>"
0="
0<"
0;"
$end
#50
1!
11
16"
14
02
15
03
16
#100
0!
01
#150
1!
11
15"
06"
08
05
04
12
18
15
19
06
13
09
16
#200
0!
01
#250
1!
11
16"
14
02
08
05
03
19
06
#300
0!
01
#350
1!
11
14"
05"
06"
1:
18
15
04
12
09
0:
05
1;
19
16
13
0;
06
#400
0!
01
#450
1!
11
16"
14
02
15
03
16
#500
0!
01
#550
1!
11
15"
06"
08
05
04
12
1:
18
15
09
06
13
0:
1;
19
16
0;
#600
0!
01
#650
1!
11
16"
14
02
08
05
03
1:
09
06
1;
#700
0!
01
#750
1!
11
13"
04"
05"
06"
0<
0:
18
15
04
12
0;
19
1<
05
1=
1;
09
16
13
0=
06
#800
0!
01
#850
1!
11
16"
14
02
15
03
16
#900
0!
01
#950
1!
11
15"
06"
08
05
04
12
18
15
19
06
13
09
16
#1000
0!
01
#1050
1!
11
16"
1U
14
02
08
05
03
19
06
#1100
0!
01
#1150
1!
11
14"
05"
06"
0U
1:
18
15
04
12
09
0<
0:
05
0;
19
16
13
1<
1=
1;
06
0=
#1200
0!
01
#1250
1!
11
16"
14
02
15
03
16
#1300
0!
01
#1350
1!
11
15"
06"
08
05
04
12
1:
18
15
09
06
13
0<
0:
0;
19
16
1<
1=
1;
0=
#1400
0!
01
#1450
1!
11
16"
14
02
08
05
03
1:
09
06
0<
0;
1=
#1500
0!
01
#1550
1!
11
12"
03"
04"
05"
06"
1W
1>
1<
0:
18
15
04
12
0=
1;
19
0>
05
1?
1=
0;
09
16
13
0?
06
#1600
0!
01
#1650
1!
11
16"
14
02
15
03
16
#1700
0!
01
#1750
1!
11
15"
06"
08
05
04
12
18
15
19
06
13
09
16
#1800
0!
01
#1850
1!
11
16"
14
02
08
05
03
19
06
#1900
0!
01
#1950
1!
11
14"
05"
06"
1:
18
15
04
12
09
0:
05
1;
19
16
13
0;
06
#2000
0!
01
#2050
1!
11
16"
14
02
15
03
16
#2100
0!
01
#2150
1!
11
15"
06"
08
05
04
12
1:
18
15
09
06
13
0:
1;
19
16
0;
#2200
0!
01
#2250
1!
11
16"
14
02
08
05
03
1:
09
06
1;
#2300
0!
01
#2350
1!
11
13"
04"
05"
06"
0<
0:
18
15
04
12
0;
19
1>
1<
05
0=
1;
09
16
13
0>
1?
1=
06
0?
#2400
0!
01
#2450
1!
11
16"
14
02
15
03
16
#2500
0!
01
#2550
1!
11
15"
06"
08
05
04
12
18
15
19
06
13
09
16
#2600
0!
01
#2650
1!
11
16"
1U
14
02
1X
08
05
03
1~
19
06
1!!
1/
1&
1l!
1i!
1.
10
1%
1$
#2700
0!
01
#2750
1!
11
02"
03"
05"
0W
0U
18
15
0=
0;
0X
09
16
0~
0!!
0/
0&
#2800
0!
01
#2850
1!
11
15"
06"
08
05
04
12
18
15
19
06
13
09
16
#2900
0!
01
#2950
1!
11
16"
14
02
08
05
03
19
06
#3000
0!
01
#3050
1!
11
14"
05"
06"
1:
18
15
04
12
09
0:
05
1;
19
16
13
0;
06
#3100
0!
01
#3150
1!
11
16"
14
02
15
03
16
#3200
0!
01
#3250
1!
11
15"
06"
08
05
04
12
1:
18
15
09
06
13
0:
1;
19
16
0;
#3300
0!
01
#3350
1!
11
16"
14
02
08
05
03
1:
09
06
1;
#3400
0!
01
#3450
1!
11
13"
04"
05"
06"
0<
0:
18
15
04
12
0;
19
1<
05
1=
1;
09
16
13
0=
06
#3500
0!
01
#3550
1!
11
16"
14
02
15
03
16
#3600
0!
01
#3650
1!
11
15"
06"
08
05
04
12
18
15
19
06
13
09
16
#3700
0!
01
#3750
1!
11
16"
1U
14
02
08
05
03
19
06
#3800
0!
01
#3850
1!
11
14"
05"
06"
0U
1:
18
15
04
12
09
0<
0:
05
0;
19
16
13
1<
1=
1;
06
0=
#3900
0!
01
#3950
1!
11
16"
14
02
15
03
16
#4000
0!
01
#4050
1!
11
15"
06"
08
05
04
12
1:
18
15
09
06
13
0<
0:
0;
19
16
1<
1=
1;
0=
#4100
0!
01
#4150
1!
11
16"
14
02
08
05
03
1:
09
06
0<
0;
1=
#4200
0!
01
#4250
1!
11
12"
03"
04"
05"
06"
1W
1>
1<
0:
18
15
04
12
0=
1;
19
0>
05
1?
1=
0;
09
16
13
0?
06
#4300
0!
01
#4350
1!
11
16"
14
02
15
03
16
#4400
0!
01
#4450
1!
11
15"
06"
08
05
04
12
18
15
19
06
13
09
16
#4500
0!
01
#4550
1!
11
16"
14
02
08
05
03
19
06
#4600
0!
01
#4650
1!
11
14"
05"
06"
1:
18
15
04
12
09
0:
05
1;
19
16
13
0;
06
#4700
0!
01
#4750
1!
11
16"
14
02
15
03
16
#4800
0!
01
#4850
1!
11
15"
06"
08
05
04
12
1:
18
15
09
06
13
0:
1;
19
16
0;
#4900
0!
01
#4950
1!
11
16"
14
02
08
05
03
1:
09
06
1;
#5000
0!
01
#5050
1!
11
13"
04"
05"
06"
0<
0:
18
15
04
12
0;
19
1>
1<
05
0=
1;
09
16
13
0>
1?
1=
06
0?
#5100
0!
01
#5150
1!
11
16"
14
02
15
03
16
#5200
0!
01
#5250
1!
11
15"
06"
08
05
04
12
18
15
19
06
13
09
16
#5300
0!
01
#5350
1!
11
16"
1U
14
02
1X
08
05
03
1~
19
06
1!!
1/
1&
#5400
0!
01
#5450
1!
11
02"
03"
05"
0W
0U
18
15
0=
0;
0X
09
16
0~
0!!
0/
0&
#5500
0!
01
#5550
1!
11
15"
06"
08
05
04
12
18
15
19
06
13
09
16
#5600
0!
01
#5650
1!
11
16"
14
02
08
05
03
19
06
#5700
0!
01
#5750
1!
11
14"
05"
06"
1:
18
15
04
12
09
0:
05
1;
19
16
13
0;
06
#5800
0!
01
#5850
1!
11
16"
14
02
15
03
16
#5900
0!
01
#5950
1!
11
15"
06"
08
05
04
12
1:
18
15
09
06
13
0:
1;
19
16
0;
#6000
0!
01
#6050
1!
11
16"
14
02
08
05
03
1:
09
06
1;
#6100
0!
01
#6150
1!
11
13"
04"
05"
06"
0<
0:
18
15
04
12
0;
19
1<
05
1=
1;
09
16
13
0=
06
#6200
0!
01
#6250
1!
11
16"
14
02
15
03
16
#6300
0!
01
#6350
1!
11
15"
06"
08
05
04
12
18
15
19
06
13
09
16
#6400
0!
01
#6450
1!
11
16"
1U
14
02
08
05
03
19
06
#6500
0!
01
#6550
1!
11
14"
05"
06"
0U
1:
18
15
04
12
09
0<
0:
05
0;
19
16
13
1<
1=
1;
06
0=
#6600
0!
01
#6650
1!
11
16"
14
02
15
03
16
#6700
0!
01
#6750
1!
11
15"
06"
08
05
04
12
1:
18
15
09
06
13
0<
0:
0;
19
16
1<
1=
1;
0=
#6800
0!
01
#6850
1!
11
16"
14
02
08
05
03
1:
09
06
0<
0;
1=
#6900
0!
01
#6950
1!
11
12"
03"
04"
05"
06"
1W
1>
1<
0:
18
15
04
12
0=
1;
19
0>
05
1?
1=
0;
09
16
13
0?
06
#7000
0!
01
#7050
1!
11
16"
14
02
15
03
16
#7100
0!
01
#7150
1!
11
15"
06"
08
05
04
12
18
15
19
06
13
09
16
#7200
0!
01
#7250
1!
11
16"
14
02
08
05
03
19
06
#7300
0!
01
#7350
1!
11
14"
05"
06"
1:
18
15
04
12
09
0:
05
1;
19
16
13
0;
06
#7400
0!
01
#7450
1!
11
16"
14
02
15
03
16
#7500
0!
01
#7550
1!
11
15"
06"
08
05
04
12
1:
18
15
09
06
13
0:
1;
19
16
0;
#7600
0!
01
#7650
1!
11
16"
14
02
08
05
03
1:
09
06
1;
#7700
0!
01
#7750
1!
11
13"
04"
05"
06"
0<
0:
18
15
04
12
0;
19
1>
1<
05
0=
1;
09
16
13
0>
1?
1=
06
0?
#7800
0!
01
#7850
1!
11
16"
14
02
15
03
16
#7900
0!
01
#7950
1!
11
15"
06"
08
05
04
12
18
15
19
06
13
09
16
#8000
0!
01
#8050
1!
11
16"
1U
14
02
1X
08
05
03
1~
19
06
1!!
1/
1&
#8100
0!
01
#8150
1!
11
02"
03"
05"
0W
0U
18
15
0=
0;
0X
09
16
0~
0!!
0/
0&
#8200
0!
01
#8250
1!
11
15"
06"
08
05
04
12
18
15
19
06
13
09
16
#8300
0!
01
#8350
1!
11
16"
14
02
08
05
03
19
06
#8400
0!
01
#8450
1!
11
14"
05"
06"
1:
18
15
04
12
09
0:
05
1;
19
16
13
0;
06
#8500
0!
01
#8550
1!
11
16"
14
02
15
03
16
#8600
0!
01
#8650
1!
11
15"
06"
08
05
04
12
1:
18
15
09
06
13
0:
1;
19
16
0;
#8700
0!
01
#8750
1!
11
16"
14
02
08
05
03
1:
09
06
1;
#8800
0!
01
#8850
1!
11
13"
04"
05"
06"
0<
0:
18
15
04
12
0;
19
1<
05
1=
1;
09
16
13
0=
06
#8900
0!
01
#8950
1!
11
16"
14
02
15
03
16
#9000
0!
01
#9050
1!
11
15"
06"
08
05
04
12
18
15
19
06
13
09
16
#9100
0!
01
#9150
1!
11
16"
1U
14
02
08
05
03
19
06
#9200
0!
01
#9250
1!
11
14"
05"
06"
0U
1:
18
15
04
12
09
0<
0:
05
0;
19
16
13
1<
1=
1;
06
0=
#9300
0!
01
#9350
1!
11
16"
14
02
15
03
16
#9400
0!
01
#9450
1!
11
15"
06"
08
05
04
12
1:
18
15
09
06
13
0<
0:
0;
19
16
1<
1=
1;
0=
#9500
0!
01
#9550
1!
11
16"
14
02
08
05
03
1:
09
06
0<
0;
1=
#9600
0!
01
#9650
1!
11
12"
03"
04"
05"
06"
1W
1>
1<
0:
18
15
04
12
0=
1;
19
0>
05
1?
1=
0;
09
16
13
0?
06
#9700
0!
01
#9750
1!
11
16"
14
02
15
03
16
#9800
0!
01
#9850
1!
11
15"
06"
08
05
04
12
18
15
19
06
13
09
16
#9900
0!
01
#9950
1!
11
16"
14
02
08
05
03
19
06
#10000
0!
01
#10050
1!
11
14"
05"
06"
1:
18
15
04
12
09
0:
05
1;
19
16
13
0;
06
#10100
0!
01
#10150
1!
11
16"
14
02
15
03
16
#10200
0!
01
#10250
1!
11
15"
06"
08
05
04
12
1:
18
15
09
06
13
0:
1;
19
16
0;
#10300
0!
01
#10350
1!
11
16"
14
02
08
05
03
1:
09
06
1;
#10400
0!
01
#10450
1!
11
13"
04"
05"
06"
0<
0:
18
15
04
12
0;
19
1>
1<
05
0=
1;
09
16
13
0>
1?
1=
06
0?
#10500
0!
01
#10550
1!
11
16"
14
02
15
03
16
#10600
0!
01
#10650
1!
11
15"
06"
08
05
04
12
18
15
19
06
13
09
16
#10700
0!
01
#10750
1!
11
16"
1U
14
02
1X
08
05
03
1~
19
06
1!!
1/
1&
#10800
0!
01
#10850
1!
11
02"
03"
05"
0W
0U
18
15
0=
0;
0X
09
16
0~
0!!
0/
0&
#10900
0!
01
#10950
1!
11
15"
06"
08
05
04
12
18
15
19
06
13
09
16
#11000
0!
01
#11050
1!
11
16"
14
02
08
05
03
19
06
#11100
0!
01
#11150
1!
11
14"
05"
06"
1:
18
15
04
12
09
0:
05
1;
19
16
13
0;
06
#11200
0!
01
#11250
1!
11
16"
14
02
15
03
16
#11300
0!
01
#11350
1!
11
15"
06"
08
05
04
12
1:
18
15
09
06
13
0:
1;
19
16
0;
#11400
0!
01
#11450
1!
11
16"
14
02
08
05
03
1:
09
06
1;
#11500
0!
01
#11550
1!
11
13"
04"
05"
06"
0<
0:
18
15
04
12
0;
19
1<
05
1=
1;
09
16
13
0=
06
#11600
0!
01
#11650
1!
11
16"
14
02
15
03
16
#11700
0!
01
#11750
1!
11
15"
06"
08
05
04
12
18
15
19
06
13
09
16
#11800
0!
01
#11850
1!
11
16"
1U
14
02
08
05
03
19
06
#11900
0!
01
#11950
1!
11
14"
05"
06"
0U
1:
18
15
04
12
09
0<
0:
05
0;
19
16
13
1<
1=
1;
06
0=
#12000
0!
01
#12050
1!
11
16"
14
02
15
03
16
#12100
0!
01
#12150
1!
11
15"
06"
08
05
04
12
1:
18
15
09
06
13
0<
0:
0;
19
16
1<
1=
1;
0=
#12200
0!
01
#12250
1!
11
16"
14
02
08
05
03
1:
09
06
0<
0;
1=
#12300
0!
01
#12350
1!
11
12"
03"
04"
05"
06"
1W
1>
1<
0:
18
15
04
12
0=
1;
19
0>
05
1?
1=
0;
09
16
13
0?
06
#12400
0!
01
#12450
1!
11
16"
14
02
15
03
16
#12500
0!
01
#12550
1!
11
15"
06"
08
05
04
12
18
15
19
06
13
09
16
#12600
0!
01
#12650
1!
11
16"
14
02
08
05
03
19
06
#12700
0!
01
#12750
1!
11
14"
05"
06"
1:
18
15
04
12
09
0:
05
1;
19
16
13
0;
06
#12800
0!
01
#12850
1!
11
16"
14
02
15
03
16
#12900
0!
01
#12950
1!
11
15"
06"
08
05
04
12
1:
18
15
09
06
13
0:
1;
19
16
0;
#13000
0!
01
#13050
1!
11
16"
14
02
08
05
03
1:
09
06
1;
#13100
0!
01
#13150
1!
11
13"
04"
05"
06"
0<
0:
18
15
04
12
0;
19
1>
1<
05
0=
1;
09
16
13
0>
1?
1=
06
0?
#13200
0!
01
#13250
1!
11
16"
14
02
15
03
16
#13300
0!
01
#13350
1!
11
15"
06"
08
05
04
12
18
15
19
06
13
09
16
#13400
0!
01
#13450
1!
11
16"
1U
14
02
1X
08
05
03
1~
19
06
1!!
1/
1&
#13500
0!
01
#13550
1!
11
02"
03"
05"
0W
0U
18
15
0=
0;
0X
09
16
0~
0!!
0/
0&
#13600
0!
01
#13650
1!
11
15"
06"
08
05
04
12
18
15
19
06
13
09
16
#13700
0!
01
#13750
1!
11
16"
14
02
08
05
03
19
06
#13800
0!
01
#13850
1!
11
14"
05"
06"
1:
18
15
04
12
09
0:
05
1;
19
16
13
0;
06
#13900
0!
01
#13950
1!
11
16"
14
02
15
03
16
#14000
0!
01
#14050
1!
11
15"
06"
08
05
04
12
1:
18
15
09
06
13
0:
1;
19
16
0;
#14100
0!
01
#14150
1!
11
16"
14
02
08
05
03
1:
09
06
1;
#14200
0!
01
#14250
1!
11
13"
04"
05"
06"
0<
0:
18
15
04
12
0;
19
1<
05
1=
1;
09
16
13
0=
06
#14300
0!
01
#14350
1!
11
16"
14
02
15
03
16
#14400
0!
01
#14450
1!
11
15"
06"
08
05
04
12
18
15
19
06
13
09
16
#14500
0!
01
#14550
1!
11
16"
1U
14
02
08
05
03
19
06
#14600
0!
01
#14650
1!
11
14"
05"
06"
0U
1:
18
15
04
12
09
0<
0:
05
0;
19
16
13
1<
1=
1;
06
0=
#14700
0!
01
#14750
1!
11
16"
14
02
15
03
16
#14800
0!
01
#14850
1!
11
15"
06"
08
05
04
12
1:
18
15
09
06
13
0<
0:
0;
19
16
1<
1=
1;
0=
#14900
0!
01
#14950
1!
11
16"
14
02
08
05
03
1:
09
06
0<
0;
1=
#15000
0!
01
#15050
1!
11
12"
03"
04"
05"
06"
1W
1>
1<
0:
18
15
04
12
0=
1;
19
0>
05
1?
1=
0;
09
16
13
0?
06
#15100
0!
01
#15150
1!
11
16"
14
02
15
03
16
#15200
0!
01
#15250
1!
11
15"
06"
08
05
04
12
18
15
19
06
13
09
16
#15300
0!
01
#15350
1!
11
16"
14
02
08
05
03
19
06
#15400
0!
01
#15450
1!
11
14"
05"
06"
1:
18
15
04
12
09
0:
05
1;
19
16
13
0;
06
#15500
0!
01
#15550
1!
11
16"
14
02
15
03
16
#15600
0!
01
#15650
1!
11
15"
06"
08
05
04
12
1:
18
15
09
06
13
0:
1;
19
16
0;
#15700
0!
01
#15750
1!
11
16"
14
02
08
05
03
1:
09
06
1;
#15800
0!
01
#15850
1!
11
13"
04"
05"
06"
0<
0:
18
15
04
12
0;
19
1>
1<
05
0=
1;
09
16
13
0>
1?
1=
06
0?
#15900
0!
01
#15950
1!
11
16"
14
02
15
03
16
#16000
0!
01
#16050
1!
11
15"
06"
08
05
04
12
18
15
19
06
13
09
16
#16100
0!
01
#16150
1!
11
16"
1U
14
02
1X
08
05
03
1~
19
06
1!!
1/
1&
#16200
0!
01
#16250
1!
11
02"
03"
05"
0W
0U
18
15
0=
0;
0X
09
16
0~
0!!
0/
0&
#16300
0!
01
#16350
1!
11
15"
06"
08
05
04
12
18
15
19
06
13
09
16
#16400
0!
01
#16450
1!
11
16"
14
02
08
05
03
19
06
#16500
0!
01
#16550
1!
11
14"
05"
06"
1:
18
15
04
12
09
0:
05
1;
19
16
13
0;
06
#16600
0!
01
#16650
1!
11
16"
14
02
15
03
16
#16700
0!
01
#16750
1!
11
15"
06"
08
05
04
12
1:
18
15
09
06
13
0:
1;
19
16
0;
#16800
0!
01
#16850
1!
11
16"
14
02
08
05
03
1:
09
06
1;
#16900
0!
01
#16950
1!
11
13"
04"
05"
06"
0<
0:
18
15
04
12
0;
19
1<
05
1=
1;
09
16
13
0=
06
#17000
0!
01
#17050
1!
11
16"
14
02
15
03
16
#17100
0!
01
#17150
1!
11
15"
06"
08
05
04
12
18
15
19
06
13
09
16
#17200
0!
01
#17250
1!
11
16"
1U
14
02
08
05
03
19
06
#17300
0!
01
#17350
1!
11
14"
05"
06"
0U
1:
18
15
04
12
09
0<
0:
05
0;
19
16
13
1<
1=
1;
06
0=
#17400
0!
01
#17450
1!
11
16"
14
02
15
03
16
#17500
0!
01
